<?xml version="1.0" encoding="utf-8"?>
<!-- Generator: Adobe Illustrator 16.0.0, SVG Export Plug-In . SVG Version: 6.00 Build 0)  -->
<!DOCTYPE svg PUBLIC "-//W3C//DTD SVG 1.1//EN" "http://www.w3.org/Graphics/SVG/1.1/DTD/svg11.dtd">
<svg version="1.1" id="Layer_1" xmlns="http://www.w3.org/2000/svg" xmlns:xlink="http://www.w3.org/1999/xlink" x="0px" y="0px"
	 width="100px" height="100px" viewBox="0 0 100 100" enable-background="new 0 0 100 100" xml:space="preserve">
<circle fill="#FFFFFF" cx="50" cy="50" r="33.935"/>
<path fill="#547CB7" d="M50,2.777C23.89,2.777,2.777,23.89,2.777,50C2.777,76.111,23.89,97.223,50,97.223
	c26.111,0,47.223-21.109,47.223-47.223C97.223,23.89,76.111,2.777,50,2.777z M60.555,41.944l-0.556,6.944h-7.222v24.445h-9.167
	V48.889H38.61v-6.944h5.001v-4.723c0-2.222,0-5.277,1.666-7.223c1.667-2.222,3.89-3.61,7.5-3.61c6.111,0,8.609,0.833,8.609,0.833
	l-1.109,7.222c0,0-1.943-0.555-3.889-0.555c-1.947,0-3.611,0.555-3.611,2.5v5.556L60.555,41.944L60.555,41.944z"/>
</svg>
